{
    "name": "Pancreas (random split with 20% label noise",
    "headers": {
        "names": [
            "Rank",
            "Micro F1 score",
            "Accuracy",
            "F1 score",
            "Memory (GB)",
            "Runtime (min)",
            "CPU (%)",
            "Name",
            "Paper",
            "Code",
            "Year"
        ],
        "fixed": [
            "Name",
            "Paper",
            "Website",
            "Code"
        ]
    },
    "results": [
        {
            "Name": "Majority Vote",
            "Paper": "Majority Vote Dummy",
            "Paper URL": "",
            "Year": 2022,
            "Code": "https://github.com/openproblems-bio/openproblems",
            "Version": "0.6.0",
            "Runtime (min)": 2.8,
            "CPU (%)": 25.3,
            "Memory (GB)": 3.7,
            "Rank": 11,
            "Micro F1 score": 0.3318345323741007,
            "Accuracy": 0.3318345323741007,
            "F1 score": 0.16535711336400155
        },
        {
            "Name": "Random Labels",
            "Paper": "Random Labels Dummy",
            "Paper URL": "",
            "Year": 2022,
            "Code": "https://github.com/openproblems-bio/openproblems",
            "Version": "0.6.0",
            "Runtime (min)": 2.5666666666666664,
            "CPU (%)": 26.1,
            "Memory (GB)": 3.6,
            "Rank": 12,
            "F1 score": 0.1989536145077819,
            "Micro F1 score": 0.18525179856115107,
            "Accuracy": 0.18525179856115107
        },
        {
            "Name": "Logistic regression (log CPM)",
            "Paper": "Applied Logistic Regression",
            "Paper URL": "https://books.google.com/books?id=64JYAwAAQBAJ",
            "Year": 2013,
            "Code": "https://scikit-learn.org/stable/modules/generated/sklearn.linear_model.LogisticRegression.html",
            "Version": "1.1.0",
            "Runtime (min)": 1.9666666666666668,
            "CPU (%)": 646.4,
            "Memory (GB)": 6.5,
            "Rank": 1,
            "Micro F1 score": 0.979916067146283,
            "F1 score": 0.9793339498303505,
            "Accuracy": 0.979916067146283
        },
        {
            "Name": "Multilayer perceptron (log CPM)",
            "Paper": "Connectionist learning procedures",
            "Paper URL": "https://www.sciencedirect.com/science/article/pii/B9780080510552500298",
            "Year": 1990,
            "Code": "https://scikit-learn.org/stable/modules/generated/sklearn.neural_network.MLPClassifier.html",
            "Version": "1.1.0",
            "Runtime (min)": 1.55,
            "CPU (%)": 883.5,
            "Memory (GB)": 6.4,
            "Rank": 9,
            "F1 score": 0.8669700871385441,
            "Micro F1 score": 0.842326139088729,
            "Accuracy": 0.842326139088729
        },
        {
            "Name": "K-neighbors classifier (log CPM)",
            "Paper": "Nearest neighbor pattern classification",
            "Paper URL": "https://doi.org/10.1109/TIT.1967.1053964",
            "Year": 1967,
            "Code": "https://scikit-learn.org/stable/modules/generated/sklearn.neighbors.KNeighborsClassifier.html",
            "Version": "1.1.0",
            "Runtime (min)": 4.533333333333333,
            "CPU (%)": 255.9,
            "Memory (GB)": 6.5,
            "Rank": 7,
            "Micro F1 score": 0.9232613908872902,
            "Accuracy": 0.9232613908872902,
            "F1 score": 0.9226095742102641
        },
        {
            "Name": "K-neighbors classifier (log scran)",
            "Paper": "Nearest neighbor pattern classification",
            "Paper URL": "https://doi.org/10.1109/TIT.1967.1053964",
            "Year": 1967,
            "Code": "https://scikit-learn.org/stable/modules/generated/sklearn.neighbors.KNeighborsClassifier.html",
            "Version": "1.1.0",
            "Runtime (min)": 14.8,
            "CPU (%)": 235.3,
            "Memory (GB)": 22.5,
            "Rank": 5,
            "F1 score": 0.9457165293974363,
            "Accuracy": 0.9463429256594724,
            "Micro F1 score": 0.9463429256594724
        },
        {
            "Name": "Logistic regression (log scran)",
            "Paper": "Applied Logistic Regression",
            "Paper URL": "https://books.google.com/books?id=64JYAwAAQBAJ",
            "Year": 2013,
            "Code": "https://scikit-learn.org/stable/modules/generated/sklearn.linear_model.LogisticRegression.html",
            "Version": "1.1.0",
            "Runtime (min)": 14.016666666666667,
            "CPU (%)": 211.3,
            "Memory (GB)": 22.5,
            "Rank": 10,
            "Micro F1 score": 0.8264388489208633,
            "F1 score": 0.8040431537796124,
            "Accuracy": 0.8264388489208633
        },
        {
            "Name": "scArches+scANVI (All genes)",
            "Paper": "Query to reference single-cell integration with transfer learning.",
            "Paper URL": "https://www.biorxiv.org/content/10.1101/2020.07.16.205997v1",
            "Year": 2021,
            "Code": "https://github.com/YosefLab/scvi-tools",
            "Version": "ModuleNotFound",
            "Runtime (min)": 93.58333333333333,
            "CPU (%)": 762.9,
            "Memory (GB)": 9.3,
            "Rank": 6,
            "F1 score": 0.9427279477436156,
            "Accuracy": 0.9523381294964028,
            "Micro F1 score": 0.9523381294964028
        },
        {
            "Name": "Multilayer perceptron (log scran)",
            "Paper": "Connectionist learning procedures",
            "Paper URL": "https://www.sciencedirect.com/science/article/pii/B9780080510552500298",
            "Year": 1990,
            "Code": "https://scikit-learn.org/stable/modules/generated/sklearn.neural_network.MLPClassifier.html",
            "Version": "1.1.0",
            "Runtime (min)": 48.333333333333336,
            "CPU (%)": 2042.8,
            "Memory (GB)": 22.5,
            "Rank": 8,
            "Accuracy": 0.9226618705035972,
            "F1 score": 0.9293160279187735,
            "Micro F1 score": 0.9226618705035972
        },
        {
            "Name": "scANVI (Seurat v3 2000 HVG)",
            "Paper": "Probabilistic harmonization and annotation of single-cell transcriptomics data with deep generative models.",
            "Paper URL": "https://www.embopress.org/doi/full/10.15252/msb.20209620",
            "Year": 2021,
            "Code": "https://github.com/YosefLab/scvi-tools",
            "Version": "ModuleNotFound",
            "Runtime (min)": 184.4,
            "CPU (%)": 1058.6,
            "Memory (GB)": 6.9,
            "Rank": 2,
            "F1 score": 0.9585383158943404,
            "Micro F1 score": 0.9646282973621103,
            "Accuracy": 0.9646282973621103
        },
        {
            "Name": "scArches+scANVI (Seurat v3 2000 HVG)",
            "Paper": "Query to reference single-cell integration with transfer learning.",
            "Paper URL": "https://www.biorxiv.org/content/10.1101/2020.07.16.205997v1",
            "Year": 2021,
            "Code": "https://github.com/YosefLab/scvi-tools",
            "Version": "ModuleNotFound",
            "Runtime (min)": 44.95,
            "CPU (%)": 1621.5,
            "Memory (GB)": 7.6,
            "Rank": 4,
            "Accuracy": 0.9529376498800959,
            "Micro F1 score": 0.9529376498800959,
            "F1 score": 0.943255352619438
        },
        {
            "Name": "scANVI (All genes)",
            "Paper": "Probabilistic harmonization and annotation of single-cell transcriptomics data with deep generative models.",
            "Paper URL": "https://www.embopress.org/doi/full/10.15252/msb.20209620",
            "Year": 2021,
            "Code": "https://github.com/YosefLab/scvi-tools",
            "Version": "ModuleNotFound",
            "Runtime (min)": 165.81666666666666,
            "CPU (%)": 1669.2,
            "Memory (GB)": 6.3,
            "Rank": 3,
            "Micro F1 score": 0.9637290167865707,
            "F1 score": 0.957608221626819,
            "Accuracy": 0.9637290167865707
        }
    ]
}
